%YAML 1.1
%TAG !u! tag:unity3d.com,2011:
--- !u!1001 &7732073817570964515
PrefabInstance:
  m_ObjectHideFlags: 0
  serializedVersion: 2
  m_Modification:
    m_TransformParent: {fileID: 0}
    m_Modifications:
    - target: {fileID: 6225136525396755862, guid: 505fbc922418f4c8ca6558bce26d43c1,
        type: 3}
      propertyPath: m_LocalPosition.x
      value: 0
      objectReference: {fileID: 0}
    - target: {fileID: 6225136525396755862, guid: 505fbc922418f4c8ca6558bce26d43c1,
        type: 3}
      propertyPath: m_LocalPosition.y
      value: 0
      objectReference: {fileID: 0}
    - target: {fileID: 6225136525396755862, guid: 505fbc922418f4c8ca6558bce26d43c1,
        type: 3}
      propertyPath: m_LocalPosition.z
      value: 0
      objectReference: {fileID: 0}
    - target: {fileID: 6225136525396755862, guid: 505fbc922418f4c8ca6558bce26d43c1,
        type: 3}
      propertyPath: m_LocalRotation.x
      value: 0
      objectReference: {fileID: 0}
    - target: {fileID: 6225136525396755862, guid: 505fbc922418f4c8ca6558bce26d43c1,
        type: 3}
      propertyPath: m_LocalRotation.y
      value: 0
      objectReference: {fileID: 0}
    - target: {fileID: 6225136525396755862, guid: 505fbc922418f4c8ca6558bce26d43c1,
        type: 3}
      propertyPath: m_LocalRotation.z
      value: 1
      objectReference: {fileID: 0}
    - target: {fileID: 6225136525396755862, guid: 505fbc922418f4c8ca6558bce26d43c1,
        type: 3}
      propertyPath: m_LocalRotation.w
      value: 0
      objectReference: {fileID: 0}
    - target: {fileID: 6225136525396755862, guid: 505fbc922418f4c8ca6558bce26d43c1,
        type: 3}
      propertyPath: m_RootOrder
      value: 0
      objectReference: {fileID: 0}
    - target: {fileID: 6225136525396755862, guid: 505fbc922418f4c8ca6558bce26d43c1,
        type: 3}
      propertyPath: m_LocalEulerAnglesHint.x
      value: 0
      objectReference: {fileID: 0}
    - target: {fileID: 6225136525396755862, guid: 505fbc922418f4c8ca6558bce26d43c1,
        type: 3}
      propertyPath: m_LocalEulerAnglesHint.y
      value: 0
      objectReference: {fileID: 0}
    - target: {fileID: 6225136525396755862, guid: 505fbc922418f4c8ca6558bce26d43c1,
        type: 3}
      propertyPath: m_LocalEulerAnglesHint.z
      value: 180
      objectReference: {fileID: 0}
    - target: {fileID: 6225136525396756199, guid: 505fbc922418f4c8ca6558bce26d43c1,
        type: 3}
      propertyPath: m_Name
      value: DevOpsARCore Variant
      objectReference: {fileID: 0}
    - target: {fileID: 6225136525396755862, guid: 505fbc922418f4c8ca6558bce26d43c1,
        type: 3}
      propertyPath: m_LocalPosition.x
      value: 0
      objectReference: {fileID: 0}
    - target: {fileID: 6225136525396755862, guid: 505fbc922418f4c8ca6558bce26d43c1,
        type: 3}
      propertyPath: m_LocalPosition.y
      value: 0
      objectReference: {fileID: 0}
    - target: {fileID: 6225136525396755862, guid: 505fbc922418f4c8ca6558bce26d43c1,
        type: 3}
      propertyPath: m_LocalPosition.z
      value: 0
      objectReference: {fileID: 0}
    - target: {fileID: 6225136525396755862, guid: 505fbc922418f4c8ca6558bce26d43c1,
        type: 3}
      propertyPath: m_LocalRotation.x
      value: 0
      objectReference: {fileID: 0}
    - target: {fileID: 6225136525396755862, guid: 505fbc922418f4c8ca6558bce26d43c1,
        type: 3}
      propertyPath: m_LocalRotation.y
      value: 0
      objectReference: {fileID: 0}
    - target: {fileID: 6225136525396755862, guid: 505fbc922418f4c8ca6558bce26d43c1,
        type: 3}
      propertyPath: m_LocalRotation.z
      value: 1
      objectReference: {fileID: 0}
    - target: {fileID: 6225136525396755862, guid: 505fbc922418f4c8ca6558bce26d43c1,
        type: 3}
      propertyPath: m_LocalRotation.w
      value: 0
      objectReference: {fileID: 0}
    - target: {fileID: 6225136525396755862, guid: 505fbc922418f4c8ca6558bce26d43c1,
        type: 3}
      propertyPath: m_RootOrder
      value: 0
      objectReference: {fileID: 0}
    - target: {fileID: 6225136525396755862, guid: 505fbc922418f4c8ca6558bce26d43c1,
        type: 3}
      propertyPath: m_LocalEulerAnglesHint.x
      value: 0
      objectReference: {fileID: 0}
    - target: {fileID: 6225136525396755862, guid: 505fbc922418f4c8ca6558bce26d43c1,
        type: 3}
      propertyPath: m_LocalEulerAnglesHint.y
      value: 0
      objectReference: {fileID: 0}
    - target: {fileID: 6225136525396755862, guid: 505fbc922418f4c8ca6558bce26d43c1,
        type: 3}
      propertyPath: m_LocalEulerAnglesHint.z
      value: 180
      objectReference: {fileID: 0}
    - target: {fileID: 6225136525396756199, guid: 505fbc922418f4c8ca6558bce26d43c1,
        type: 3}
      propertyPath: m_Name
      value: DevOpsARCore Variant
      objectReference: {fileID: 0}
    - target: {fileID: 4161508048825757320, guid: 505fbc922418f4c8ca6558bce26d43c1,
        type: 3}
      propertyPath: m_LocalScale.x
      value: 0.017
      objectReference: {fileID: 0}
    - target: {fileID: 4161508048825757320, guid: 505fbc922418f4c8ca6558bce26d43c1,
        type: 3}
      propertyPath: m_LocalScale.y
      value: 0.017
      objectReference: {fileID: 0}
    - target: {fileID: 4161508048825757320, guid: 505fbc922418f4c8ca6558bce26d43c1,
        type: 3}
      propertyPath: m_LocalScale.z
      value: 0.017
      objectReference: {fileID: 0}
    - target: {fileID: 4161508048825757320, guid: 505fbc922418f4c8ca6558bce26d43c1,
        type: 3}
      propertyPath: m_LocalPosition.z
      value: -0.015
      objectReference: {fileID: 0}
    m_RemovedComponents: []
  m_SourcePrefab: {fileID: 100100000, guid: 505fbc922418f4c8ca6558bce26d43c1, type: 3}
